interactions:
- request:
    body: '{"$ana_type": "alice-analysis"}'
    headers:
      Accept:
      - '*/*'
      Accept-Encoding:
      - gzip, deflate
      Connection:
      - keep-alive
      Content-Length:
      - '31'
      Content-type:
      - application/json
      User-Agent:
      - python-requests/2.26.0
      authorization:
      - DUMMY
    method: POST
    uri: https://localhost/api/deposits/
  response:
    body:
      string: '{"access":{"deposit-admin":{"roles":[],"users":[{"email":"info@inveniosoftware.org","profile":{}}]},"deposit-read":{"roles":[],"users":[{"email":"info@inveniosoftware.org","profile":{}}]},"deposit-update":{"roles":[],"users":[{"email":"info@inveniosoftware.org","profile":{}}]}},"created":"2021-12-07T15:46:09.726636+00:00","created_by":{"email":"info@inveniosoftware.org","profile":{}},"experiment":"ALICE","files":[],"id":"c920956582d04913ae982586cc81315e","is_owner":true,"labels":[],"links":{"bucket":"https://localhost/api/files/d9898dfd-4fa6-4b9b-87f7-c85741debfca","clone":"https://localhost/api/deposits/c920956582d04913ae982586cc81315e/actions/clone","discard":"https://localhost/api/deposits/c920956582d04913ae982586cc81315e/actions/discard","disconnect_webhook":"https://localhost/api/deposits/c920956582d04913ae982586cc81315e/actions/disconnect_webhook","edit":"https://localhost/api/deposits/c920956582d04913ae982586cc81315e/actions/edit","files":"https://localhost/api/deposits/c920956582d04913ae982586cc81315e/files","html":"https://localhost/drafts/c920956582d04913ae982586cc81315e","permissions":"https://localhost/api/deposits/c920956582d04913ae982586cc81315e/actions/permissions","publish":"https://localhost/api/deposits/c920956582d04913ae982586cc81315e/actions/publish","self":"https://localhost/api/deposits/c920956582d04913ae982586cc81315e","upload":"https://localhost/api/deposits/c920956582d04913ae982586cc81315e/actions/upload"},"metadata":{},"revision":0,"schema":{"fullname":"ALICE
        Analysis","name":"alice-analysis","version":"0.0.1"},"status":"draft","type":"deposit","updated":"2021-12-07T15:46:09.726661+00:00"}'
    headers:
      Access-Control-Allow-Origin:
      - '*'
      Access-Control-Expose-Headers:
      - Content-Type, ETag, Link, X-RateLimit-Limit, X-RateLimit-Remaining, X-RateLimit-Reset
      Connection:
      - keep-alive
      Content-Length:
      - '1642'
      Content-Type:
      - application/json
      Date:
      - Tue, 07 Dec 2021 15:46:09 GMT
      ETag:
      - '"0"'
      Last-Modified:
      - Tue, 07 Dec 2021 15:46:09 GMT
      Link:
      - <https://localhost/api/deposits/c920956582d04913ae982586cc81315e>; rel="self",
        <https://localhost/api/deposits/c920956582d04913ae982586cc81315e/files>; rel="files",
        <https://localhost/drafts/c920956582d04913ae982586cc81315e>; rel="html", <https://localhost/api/files/d9898dfd-4fa6-4b9b-87f7-c85741debfca>;
        rel="bucket", <https://localhost/api/deposits/c920956582d04913ae982586cc81315e/actions/clone>;
        rel="clone", <https://localhost/api/deposits/c920956582d04913ae982586cc81315e/actions/discard>;
        rel="discard", <https://localhost/api/deposits/c920956582d04913ae982586cc81315e/actions/disconnect_webhook>;
        rel="disconnect_webhook", <https://localhost/api/deposits/c920956582d04913ae982586cc81315e/actions/edit>;
        rel="edit", <https://localhost/api/deposits/c920956582d04913ae982586cc81315e/actions/permissions>;
        rel="permissions", <https://localhost/api/deposits/c920956582d04913ae982586cc81315e/actions/publish>;
        rel="publish", <https://localhost/api/deposits/c920956582d04913ae982586cc81315e/actions/upload>;
        rel="upload"
      Retry-After:
      - '3325'
      Server:
      - nginx/1.21.4
      Strict-Transport-Security:
      - max-age=15768000
      X-RateLimit-Limit:
      - '5000'
      X-RateLimit-Remaining:
      - '4960'
      X-RateLimit-Reset:
      - '1638895295'
      location:
      - https://localhost/deposits/c920956582d04913ae982586cc81315e
    status:
      code: 201
      message: CREATED
- request:
    body: '{}'
    headers:
      Accept:
      - application/basic+json
      Accept-Encoding:
      - gzip, deflate
      Connection:
      - keep-alive
      Content-Length:
      - '2'
      Content-Type:
      - application/json
      User-Agent:
      - python-requests/2.26.0
      authorization:
      - DUMMY
    method: PUT
    uri: https://localhost/api/deposits/c920956582d04913ae982586cc81315e
  response:
    body:
      string: '{"created":"2021-12-07T15:46:09.726636+00:00","metadata":{},"pid":"c920956582d04913ae982586cc81315e","updated":"2021-12-07T15:46:10.153751+00:00"}'
    headers:
      Access-Control-Allow-Origin:
      - '*'
      Access-Control-Expose-Headers:
      - Content-Type, ETag, Link, X-RateLimit-Limit, X-RateLimit-Remaining, X-RateLimit-Reset
      Connection:
      - keep-alive
      Content-Length:
      - '146'
      Content-Type:
      - application/basic+json
      Date:
      - Tue, 07 Dec 2021 15:46:10 GMT
      ETag:
      - '"1"'
      Last-Modified:
      - Tue, 07 Dec 2021 15:46:10 GMT
      Link:
      - <https://localhost/api/deposits/c920956582d04913ae982586cc81315e>; rel="self",
        <https://localhost/api/deposits/c920956582d04913ae982586cc81315e/files>; rel="files",
        <https://localhost/drafts/c920956582d04913ae982586cc81315e>; rel="html", <https://localhost/api/files/d9898dfd-4fa6-4b9b-87f7-c85741debfca>;
        rel="bucket", <https://localhost/api/deposits/c920956582d04913ae982586cc81315e/actions/clone>;
        rel="clone", <https://localhost/api/deposits/c920956582d04913ae982586cc81315e/actions/discard>;
        rel="discard", <https://localhost/api/deposits/c920956582d04913ae982586cc81315e/actions/disconnect_webhook>;
        rel="disconnect_webhook", <https://localhost/api/deposits/c920956582d04913ae982586cc81315e/actions/edit>;
        rel="edit", <https://localhost/api/deposits/c920956582d04913ae982586cc81315e/actions/permissions>;
        rel="permissions", <https://localhost/api/deposits/c920956582d04913ae982586cc81315e/actions/publish>;
        rel="publish", <https://localhost/api/deposits/c920956582d04913ae982586cc81315e/actions/upload>;
        rel="upload"
      Retry-After:
      - '3325'
      Server:
      - nginx/1.21.4
      Strict-Transport-Security:
      - max-age=15768000
      X-RateLimit-Limit:
      - '5000'
      X-RateLimit-Remaining:
      - '4950'
      X-RateLimit-Reset:
      - '1638895296'
    status:
      code: 200
      message: OK
- request:
    body: '{"$ana_type": "cms-analysis"}'
    headers:
      Accept:
      - '*/*'
      Accept-Encoding:
      - gzip, deflate
      Connection:
      - keep-alive
      Content-Length:
      - '29'
      Content-type:
      - application/json
      User-Agent:
      - python-requests/2.26.0
      authorization:
      - DUMMY
    method: POST
    uri: https://localhost/api/deposits/
  response:
    body:
      string: '{"access":{"deposit-admin":{"roles":[],"users":[{"email":"info@inveniosoftware.org","profile":{}}]},"deposit-read":{"roles":[],"users":[{"email":"info@inveniosoftware.org","profile":{}}]},"deposit-update":{"roles":[],"users":[{"email":"info@inveniosoftware.org","profile":{}}]}},"created":"2021-12-07T15:46:10.445898+00:00","created_by":{"email":"info@inveniosoftware.org","profile":{}},"experiment":"CMS","files":[],"id":"f0af4c9feda9450b8ae60fdd52ccd434","is_owner":true,"labels":[],"links":{"bucket":"https://localhost/api/files/171f0526-d71e-4319-b783-dcf8b90f456d","clone":"https://localhost/api/deposits/f0af4c9feda9450b8ae60fdd52ccd434/actions/clone","discard":"https://localhost/api/deposits/f0af4c9feda9450b8ae60fdd52ccd434/actions/discard","disconnect_webhook":"https://localhost/api/deposits/f0af4c9feda9450b8ae60fdd52ccd434/actions/disconnect_webhook","edit":"https://localhost/api/deposits/f0af4c9feda9450b8ae60fdd52ccd434/actions/edit","files":"https://localhost/api/deposits/f0af4c9feda9450b8ae60fdd52ccd434/files","html":"https://localhost/drafts/f0af4c9feda9450b8ae60fdd52ccd434","permissions":"https://localhost/api/deposits/f0af4c9feda9450b8ae60fdd52ccd434/actions/permissions","publish":"https://localhost/api/deposits/f0af4c9feda9450b8ae60fdd52ccd434/actions/publish","self":"https://localhost/api/deposits/f0af4c9feda9450b8ae60fdd52ccd434","upload":"https://localhost/api/deposits/f0af4c9feda9450b8ae60fdd52ccd434/actions/upload"},"metadata":{},"revision":0,"schema":{"fullname":"CMS
        Analysis","name":"cms-analysis","version":"0.0.1"},"status":"draft","type":"deposit","updated":"2021-12-07T15:46:10.445918+00:00"}'
    headers:
      Access-Control-Allow-Origin:
      - '*'
      Access-Control-Expose-Headers:
      - Content-Type, ETag, Link, X-RateLimit-Limit, X-RateLimit-Remaining, X-RateLimit-Reset
      Connection:
      - keep-alive
      Content-Length:
      - '1636'
      Content-Type:
      - application/json
      Date:
      - Tue, 07 Dec 2021 15:46:10 GMT
      ETag:
      - '"0"'
      Last-Modified:
      - Tue, 07 Dec 2021 15:46:10 GMT
      Link:
      - <https://localhost/api/deposits/f0af4c9feda9450b8ae60fdd52ccd434>; rel="self",
        <https://localhost/api/deposits/f0af4c9feda9450b8ae60fdd52ccd434/files>; rel="files",
        <https://localhost/drafts/f0af4c9feda9450b8ae60fdd52ccd434>; rel="html", <https://localhost/api/files/171f0526-d71e-4319-b783-dcf8b90f456d>;
        rel="bucket", <https://localhost/api/deposits/f0af4c9feda9450b8ae60fdd52ccd434/actions/clone>;
        rel="clone", <https://localhost/api/deposits/f0af4c9feda9450b8ae60fdd52ccd434/actions/discard>;
        rel="discard", <https://localhost/api/deposits/f0af4c9feda9450b8ae60fdd52ccd434/actions/disconnect_webhook>;
        rel="disconnect_webhook", <https://localhost/api/deposits/f0af4c9feda9450b8ae60fdd52ccd434/actions/edit>;
        rel="edit", <https://localhost/api/deposits/f0af4c9feda9450b8ae60fdd52ccd434/actions/permissions>;
        rel="permissions", <https://localhost/api/deposits/f0af4c9feda9450b8ae60fdd52ccd434/actions/publish>;
        rel="publish", <https://localhost/api/deposits/f0af4c9feda9450b8ae60fdd52ccd434/actions/upload>;
        rel="upload"
      Retry-After:
      - '3324'
      Server:
      - nginx/1.21.4
      Strict-Transport-Security:
      - max-age=15768000
      X-RateLimit-Limit:
      - '5000'
      X-RateLimit-Remaining:
      - '4959'
      X-RateLimit-Reset:
      - '1638895295'
      location:
      - https://localhost/deposits/f0af4c9feda9450b8ae60fdd52ccd434
    status:
      code: 201
      message: CREATED
- request:
    body: '{}'
    headers:
      Accept:
      - application/basic+json
      Accept-Encoding:
      - gzip, deflate
      Connection:
      - keep-alive
      Content-Length:
      - '2'
      Content-Type:
      - application/json
      User-Agent:
      - python-requests/2.26.0
      authorization:
      - DUMMY
    method: PUT
    uri: https://localhost/api/deposits/f0af4c9feda9450b8ae60fdd52ccd434
  response:
    body:
      string: '{"created":"2021-12-07T15:46:10.445898+00:00","metadata":{},"pid":"f0af4c9feda9450b8ae60fdd52ccd434","updated":"2021-12-07T15:46:10.839271+00:00"}'
    headers:
      Access-Control-Allow-Origin:
      - '*'
      Access-Control-Expose-Headers:
      - Content-Type, ETag, Link, X-RateLimit-Limit, X-RateLimit-Remaining, X-RateLimit-Reset
      Connection:
      - keep-alive
      Content-Length:
      - '146'
      Content-Type:
      - application/basic+json
      Date:
      - Tue, 07 Dec 2021 15:46:10 GMT
      ETag:
      - '"1"'
      Last-Modified:
      - Tue, 07 Dec 2021 15:46:10 GMT
      Link:
      - <https://localhost/api/deposits/f0af4c9feda9450b8ae60fdd52ccd434>; rel="self",
        <https://localhost/api/deposits/f0af4c9feda9450b8ae60fdd52ccd434/files>; rel="files",
        <https://localhost/drafts/f0af4c9feda9450b8ae60fdd52ccd434>; rel="html", <https://localhost/api/files/171f0526-d71e-4319-b783-dcf8b90f456d>;
        rel="bucket", <https://localhost/api/deposits/f0af4c9feda9450b8ae60fdd52ccd434/actions/clone>;
        rel="clone", <https://localhost/api/deposits/f0af4c9feda9450b8ae60fdd52ccd434/actions/discard>;
        rel="discard", <https://localhost/api/deposits/f0af4c9feda9450b8ae60fdd52ccd434/actions/disconnect_webhook>;
        rel="disconnect_webhook", <https://localhost/api/deposits/f0af4c9feda9450b8ae60fdd52ccd434/actions/edit>;
        rel="edit", <https://localhost/api/deposits/f0af4c9feda9450b8ae60fdd52ccd434/actions/permissions>;
        rel="permissions", <https://localhost/api/deposits/f0af4c9feda9450b8ae60fdd52ccd434/actions/publish>;
        rel="publish", <https://localhost/api/deposits/f0af4c9feda9450b8ae60fdd52ccd434/actions/upload>;
        rel="upload"
      Retry-After:
      - '3324'
      Server:
      - nginx/1.21.4
      Strict-Transport-Security:
      - max-age=15768000
      X-RateLimit-Limit:
      - '5000'
      X-RateLimit-Remaining:
      - '4949'
      X-RateLimit-Reset:
      - '1638895295'
    status:
      code: 200
      message: OK
- request:
    body: null
    headers:
      Accept:
      - application/basic+json
      Accept-Encoding:
      - gzip, deflate
      Connection:
      - keep-alive
      User-Agent:
      - python-requests/2.26.0
      authorization:
      - DUMMY
    method: GET
    uri: https://localhost/api/deposits/?by_me=True&page=2&size=1
  response:
    body:
      string: '{"aggregations":{"facet_accelerator_parameters":{"buckets":[],"doc_count_error_upper_bound":0,"sum_other_doc_count":0},"facet_cadi_status":{"buckets":[],"doc_count_error_upper_bound":0,"sum_other_doc_count":0},"facet_cms_working_group":{"buckets":[],"doc_count_error_upper_bound":0,"meta":{"title":"CMS
        Working Group"},"sum_other_doc_count":0},"facet_collection":{"buckets":[{"__display_name__":"ALICE
        Analysis","doc_count":9,"facet_collection_version":{"buckets":[{"doc_count":9,"key":"0.0.1"}],"doc_count_error_upper_bound":0,"sum_other_doc_count":0},"key":"alice-analysis"},{"__display_name__":"CMS
        Analysis","doc_count":9,"facet_collection_version":{"buckets":[{"doc_count":9,"key":"0.0.1"}],"doc_count_error_upper_bound":0,"sum_other_doc_count":0},"key":"cms-analysis"}],"doc_count_error_upper_bound":0,"meta":{"order":1},"sum_other_doc_count":0},"facet_collision_system":{"buckets":[],"doc_count_error_upper_bound":0,"sum_other_doc_count":0},"facet_final_states":{"buckets":[],"doc_count_error_upper_bound":0,"sum_other_doc_count":0},"facet_further_search_categorisation":{"buckets":[],"doc_count_error_upper_bound":0,"meta":{"title":"Further
        Search Categorization"},"sum_other_doc_count":0},"facet_further_search_categorisation_heavy_ion":{"buckets":[],"doc_count_error_upper_bound":0,"meta":{"title":"Further
        Search Categorization Heavy Ion"},"sum_other_doc_count":0},"facet_interpretation":{"buckets":[],"doc_count_error_upper_bound":0,"sum_other_doc_count":0},"facet_next_deadline_date":{"buckets":[],"meta":{"title":"Next
        Deadline Date","type":"range"}},"facet_physics_theme":{"buckets":[],"doc_count_error_upper_bound":0,"sum_other_doc_count":0},"facet_sm_analysis_characteristics":{"buckets":[],"doc_count_error_upper_bound":0,"meta":{"title":"SM
        Analysis Characteristics"},"sum_other_doc_count":0},"particles":{"doc_count":0,"facet_physics_objects":{"buckets":[],"doc_count_error_upper_bound":0,"sum_other_doc_count":0}}},"hits":{"hits":[{"created":"2021-12-07T15:41:42.017186+00:00","metadata":{},"pid":"98be4c035ced4170899be03b25b61b17","updated":"2021-12-07T15:41:42.470459+00:00"}],"total":18},"links":{"next":"https://localhost/api/deposits/?page=3&size=1","prev":"https://localhost/api/deposits/?page=1&size=1","self":"https://localhost/api/deposits/?page=2&size=1"}}'
    headers:
      Access-Control-Allow-Origin:
      - '*'
      Access-Control-Expose-Headers:
      - Content-Type, ETag, Link, X-RateLimit-Limit, X-RateLimit-Remaining, X-RateLimit-Reset
      Connection:
      - keep-alive
      Content-Length:
      - '2287'
      Content-Type:
      - application/basic+json
      Date:
      - Tue, 07 Dec 2021 15:46:11 GMT
      Link:
      - <https://localhost/deposits/?page=2&size=1>; rel="self", <https://localhost/deposits/?page=1&size=1>;
        rel="prev", <https://localhost/deposits/?page=3&size=1>; rel="next"
      Retry-After:
      - '3324'
      Server:
      - nginx/1.21.4
      Strict-Transport-Security:
      - max-age=15768000
      X-RateLimit-Limit:
      - '5000'
      X-RateLimit-Remaining:
      - '4958'
      X-RateLimit-Reset:
      - '1638895296'
    status:
      code: 200
      message: OK
- request:
    body: null
    headers:
      Accept:
      - '*/*'
      Accept-Encoding:
      - gzip, deflate
      Connection:
      - keep-alive
      Content-Length:
      - '0'
      Content-type:
      - application/json
      User-Agent:
      - python-requests/2.26.0
      authorization:
      - DUMMY
    method: DELETE
    uri: https://localhost/api/deposits/c920956582d04913ae982586cc81315e
  response:
    body:
      string: ''
    headers:
      Access-Control-Allow-Origin:
      - '*'
      Access-Control-Expose-Headers:
      - Content-Type, ETag, Link, X-RateLimit-Limit, X-RateLimit-Remaining, X-RateLimit-Reset
      Connection:
      - keep-alive
      Content-Length:
      - '0'
      Content-Type:
      - text/html; charset=utf-8
      Date:
      - Tue, 07 Dec 2021 15:46:11 GMT
      Retry-After:
      - '3324'
      Server:
      - nginx/1.21.4
      Strict-Transport-Security:
      - max-age=15768000
      X-RateLimit-Limit:
      - '5000'
      X-RateLimit-Remaining:
      - '4948'
      X-RateLimit-Reset:
      - '1638895296'
    status:
      code: 204
      message: NO CONTENT
- request:
    body: null
    headers:
      Accept:
      - '*/*'
      Accept-Encoding:
      - gzip, deflate
      Connection:
      - keep-alive
      Content-Length:
      - '0'
      Content-type:
      - application/json
      User-Agent:
      - python-requests/2.26.0
      authorization:
      - DUMMY
    method: DELETE
    uri: https://localhost/api/deposits/f0af4c9feda9450b8ae60fdd52ccd434
  response:
    body:
      string: ''
    headers:
      Access-Control-Allow-Origin:
      - '*'
      Access-Control-Expose-Headers:
      - Content-Type, ETag, Link, X-RateLimit-Limit, X-RateLimit-Remaining, X-RateLimit-Reset
      Connection:
      - keep-alive
      Content-Length:
      - '0'
      Content-Type:
      - text/html; charset=utf-8
      Date:
      - Tue, 07 Dec 2021 15:46:11 GMT
      Retry-After:
      - '3323'
      Server:
      - nginx/1.21.4
      Strict-Transport-Security:
      - max-age=15768000
      X-RateLimit-Limit:
      - '5000'
      X-RateLimit-Remaining:
      - '4947'
      X-RateLimit-Reset:
      - '1638895295'
    status:
      code: 204
      message: NO CONTENT
version: 1
