interactions:
- request:
    body: '{"$ana_type": "alice-analysis"}'
    headers:
      Accept:
      - '*/*'
      Accept-Encoding:
      - gzip, deflate
      Connection:
      - keep-alive
      Content-Length:
      - '31'
      Content-type:
      - application/json
      User-Agent:
      - python-requests/2.26.0
      authorization:
      - DUMMY
    method: POST
    uri: https://localhost/api/deposits/
  response:
    body:
      string: '{"access":{"deposit-admin":{"roles":[],"users":[{"email":"info@inveniosoftware.org","profile":{}}]},"deposit-read":{"roles":[],"users":[{"email":"info@inveniosoftware.org","profile":{}}]},"deposit-update":{"roles":[],"users":[{"email":"info@inveniosoftware.org","profile":{}}]}},"created":"2021-12-07T15:46:11.700534+00:00","created_by":{"email":"info@inveniosoftware.org","profile":{}},"experiment":"ALICE","files":[],"id":"be01b5f155b846788f6447eca558615c","is_owner":true,"labels":[],"links":{"bucket":"https://localhost/api/files/1a7d9634-af91-4882-b77c-f1cbdef0cb4c","clone":"https://localhost/api/deposits/be01b5f155b846788f6447eca558615c/actions/clone","discard":"https://localhost/api/deposits/be01b5f155b846788f6447eca558615c/actions/discard","disconnect_webhook":"https://localhost/api/deposits/be01b5f155b846788f6447eca558615c/actions/disconnect_webhook","edit":"https://localhost/api/deposits/be01b5f155b846788f6447eca558615c/actions/edit","files":"https://localhost/api/deposits/be01b5f155b846788f6447eca558615c/files","html":"https://localhost/drafts/be01b5f155b846788f6447eca558615c","permissions":"https://localhost/api/deposits/be01b5f155b846788f6447eca558615c/actions/permissions","publish":"https://localhost/api/deposits/be01b5f155b846788f6447eca558615c/actions/publish","self":"https://localhost/api/deposits/be01b5f155b846788f6447eca558615c","upload":"https://localhost/api/deposits/be01b5f155b846788f6447eca558615c/actions/upload"},"metadata":{},"revision":0,"schema":{"fullname":"ALICE
        Analysis","name":"alice-analysis","version":"0.0.1"},"status":"draft","type":"deposit","updated":"2021-12-07T15:46:11.700555+00:00"}'
    headers:
      Access-Control-Allow-Origin:
      - '*'
      Access-Control-Expose-Headers:
      - Content-Type, ETag, Link, X-RateLimit-Limit, X-RateLimit-Remaining, X-RateLimit-Reset
      Connection:
      - keep-alive
      Content-Length:
      - '1642'
      Content-Type:
      - application/json
      Date:
      - Tue, 07 Dec 2021 15:46:11 GMT
      ETag:
      - '"0"'
      Last-Modified:
      - Tue, 07 Dec 2021 15:46:11 GMT
      Link:
      - <https://localhost/api/deposits/be01b5f155b846788f6447eca558615c>; rel="self",
        <https://localhost/api/deposits/be01b5f155b846788f6447eca558615c/files>; rel="files",
        <https://localhost/drafts/be01b5f155b846788f6447eca558615c>; rel="html", <https://localhost/api/files/1a7d9634-af91-4882-b77c-f1cbdef0cb4c>;
        rel="bucket", <https://localhost/api/deposits/be01b5f155b846788f6447eca558615c/actions/clone>;
        rel="clone", <https://localhost/api/deposits/be01b5f155b846788f6447eca558615c/actions/discard>;
        rel="discard", <https://localhost/api/deposits/be01b5f155b846788f6447eca558615c/actions/disconnect_webhook>;
        rel="disconnect_webhook", <https://localhost/api/deposits/be01b5f155b846788f6447eca558615c/actions/edit>;
        rel="edit", <https://localhost/api/deposits/be01b5f155b846788f6447eca558615c/actions/permissions>;
        rel="permissions", <https://localhost/api/deposits/be01b5f155b846788f6447eca558615c/actions/publish>;
        rel="publish", <https://localhost/api/deposits/be01b5f155b846788f6447eca558615c/actions/upload>;
        rel="upload"
      Retry-After:
      - '3323'
      Server:
      - nginx/1.21.4
      Strict-Transport-Security:
      - max-age=15768000
      X-RateLimit-Limit:
      - '5000'
      X-RateLimit-Remaining:
      - '4957'
      X-RateLimit-Reset:
      - '1638895295'
      location:
      - https://localhost/deposits/be01b5f155b846788f6447eca558615c
    status:
      code: 201
      message: CREATED
- request:
    body: '{}'
    headers:
      Accept:
      - application/basic+json
      Accept-Encoding:
      - gzip, deflate
      Connection:
      - keep-alive
      Content-Length:
      - '2'
      Content-Type:
      - application/json
      User-Agent:
      - python-requests/2.26.0
      authorization:
      - DUMMY
    method: PUT
    uri: https://localhost/api/deposits/be01b5f155b846788f6447eca558615c
  response:
    body:
      string: '{"created":"2021-12-07T15:46:11.700534+00:00","metadata":{},"pid":"be01b5f155b846788f6447eca558615c","updated":"2021-12-07T15:46:12.109330+00:00"}'
    headers:
      Access-Control-Allow-Origin:
      - '*'
      Access-Control-Expose-Headers:
      - Content-Type, ETag, Link, X-RateLimit-Limit, X-RateLimit-Remaining, X-RateLimit-Reset
      Connection:
      - keep-alive
      Content-Length:
      - '146'
      Content-Type:
      - application/basic+json
      Date:
      - Tue, 07 Dec 2021 15:46:12 GMT
      ETag:
      - '"1"'
      Last-Modified:
      - Tue, 07 Dec 2021 15:46:12 GMT
      Link:
      - <https://localhost/api/deposits/be01b5f155b846788f6447eca558615c>; rel="self",
        <https://localhost/api/deposits/be01b5f155b846788f6447eca558615c/files>; rel="files",
        <https://localhost/drafts/be01b5f155b846788f6447eca558615c>; rel="html", <https://localhost/api/files/1a7d9634-af91-4882-b77c-f1cbdef0cb4c>;
        rel="bucket", <https://localhost/api/deposits/be01b5f155b846788f6447eca558615c/actions/clone>;
        rel="clone", <https://localhost/api/deposits/be01b5f155b846788f6447eca558615c/actions/discard>;
        rel="discard", <https://localhost/api/deposits/be01b5f155b846788f6447eca558615c/actions/disconnect_webhook>;
        rel="disconnect_webhook", <https://localhost/api/deposits/be01b5f155b846788f6447eca558615c/actions/edit>;
        rel="edit", <https://localhost/api/deposits/be01b5f155b846788f6447eca558615c/actions/permissions>;
        rel="permissions", <https://localhost/api/deposits/be01b5f155b846788f6447eca558615c/actions/publish>;
        rel="publish", <https://localhost/api/deposits/be01b5f155b846788f6447eca558615c/actions/upload>;
        rel="upload"
      Retry-After:
      - '3323'
      Server:
      - nginx/1.21.4
      Strict-Transport-Security:
      - max-age=15768000
      X-RateLimit-Limit:
      - '5000'
      X-RateLimit-Remaining:
      - '4946'
      X-RateLimit-Reset:
      - '1638895296'
    status:
      code: 200
      message: OK
- request:
    body: '{"$ana_type": "cms-analysis"}'
    headers:
      Accept:
      - '*/*'
      Accept-Encoding:
      - gzip, deflate
      Connection:
      - keep-alive
      Content-Length:
      - '29'
      Content-type:
      - application/json
      User-Agent:
      - python-requests/2.26.0
      authorization:
      - DUMMY
    method: POST
    uri: https://localhost/api/deposits/
  response:
    body:
      string: '{"access":{"deposit-admin":{"roles":[],"users":[{"email":"info@inveniosoftware.org","profile":{}}]},"deposit-read":{"roles":[],"users":[{"email":"info@inveniosoftware.org","profile":{}}]},"deposit-update":{"roles":[],"users":[{"email":"info@inveniosoftware.org","profile":{}}]}},"created":"2021-12-07T15:46:12.404291+00:00","created_by":{"email":"info@inveniosoftware.org","profile":{}},"experiment":"CMS","files":[],"id":"9e9f010ac4104925a9da25c607cadd5e","is_owner":true,"labels":[],"links":{"bucket":"https://localhost/api/files/65fb0064-ff3a-4cb9-877f-38f5a2a0e33e","clone":"https://localhost/api/deposits/9e9f010ac4104925a9da25c607cadd5e/actions/clone","discard":"https://localhost/api/deposits/9e9f010ac4104925a9da25c607cadd5e/actions/discard","disconnect_webhook":"https://localhost/api/deposits/9e9f010ac4104925a9da25c607cadd5e/actions/disconnect_webhook","edit":"https://localhost/api/deposits/9e9f010ac4104925a9da25c607cadd5e/actions/edit","files":"https://localhost/api/deposits/9e9f010ac4104925a9da25c607cadd5e/files","html":"https://localhost/drafts/9e9f010ac4104925a9da25c607cadd5e","permissions":"https://localhost/api/deposits/9e9f010ac4104925a9da25c607cadd5e/actions/permissions","publish":"https://localhost/api/deposits/9e9f010ac4104925a9da25c607cadd5e/actions/publish","self":"https://localhost/api/deposits/9e9f010ac4104925a9da25c607cadd5e","upload":"https://localhost/api/deposits/9e9f010ac4104925a9da25c607cadd5e/actions/upload"},"metadata":{},"revision":0,"schema":{"fullname":"CMS
        Analysis","name":"cms-analysis","version":"0.0.1"},"status":"draft","type":"deposit","updated":"2021-12-07T15:46:12.404313+00:00"}'
    headers:
      Access-Control-Allow-Origin:
      - '*'
      Access-Control-Expose-Headers:
      - Content-Type, ETag, Link, X-RateLimit-Limit, X-RateLimit-Remaining, X-RateLimit-Reset
      Connection:
      - keep-alive
      Content-Length:
      - '1636'
      Content-Type:
      - application/json
      Date:
      - Tue, 07 Dec 2021 15:46:12 GMT
      ETag:
      - '"0"'
      Last-Modified:
      - Tue, 07 Dec 2021 15:46:12 GMT
      Link:
      - <https://localhost/api/deposits/9e9f010ac4104925a9da25c607cadd5e>; rel="self",
        <https://localhost/api/deposits/9e9f010ac4104925a9da25c607cadd5e/files>; rel="files",
        <https://localhost/drafts/9e9f010ac4104925a9da25c607cadd5e>; rel="html", <https://localhost/api/files/65fb0064-ff3a-4cb9-877f-38f5a2a0e33e>;
        rel="bucket", <https://localhost/api/deposits/9e9f010ac4104925a9da25c607cadd5e/actions/clone>;
        rel="clone", <https://localhost/api/deposits/9e9f010ac4104925a9da25c607cadd5e/actions/discard>;
        rel="discard", <https://localhost/api/deposits/9e9f010ac4104925a9da25c607cadd5e/actions/disconnect_webhook>;
        rel="disconnect_webhook", <https://localhost/api/deposits/9e9f010ac4104925a9da25c607cadd5e/actions/edit>;
        rel="edit", <https://localhost/api/deposits/9e9f010ac4104925a9da25c607cadd5e/actions/permissions>;
        rel="permissions", <https://localhost/api/deposits/9e9f010ac4104925a9da25c607cadd5e/actions/publish>;
        rel="publish", <https://localhost/api/deposits/9e9f010ac4104925a9da25c607cadd5e/actions/upload>;
        rel="upload"
      Retry-After:
      - '3322'
      Server:
      - nginx/1.21.4
      Strict-Transport-Security:
      - max-age=15768000
      X-RateLimit-Limit:
      - '5000'
      X-RateLimit-Remaining:
      - '4956'
      X-RateLimit-Reset:
      - '1638895295'
      location:
      - https://localhost/deposits/9e9f010ac4104925a9da25c607cadd5e
    status:
      code: 201
      message: CREATED
- request:
    body: '{}'
    headers:
      Accept:
      - application/basic+json
      Accept-Encoding:
      - gzip, deflate
      Connection:
      - keep-alive
      Content-Length:
      - '2'
      Content-Type:
      - application/json
      User-Agent:
      - python-requests/2.26.0
      authorization:
      - DUMMY
    method: PUT
    uri: https://localhost/api/deposits/9e9f010ac4104925a9da25c607cadd5e
  response:
    body:
      string: '{"created":"2021-12-07T15:46:12.404291+00:00","metadata":{},"pid":"9e9f010ac4104925a9da25c607cadd5e","updated":"2021-12-07T15:46:12.809719+00:00"}'
    headers:
      Access-Control-Allow-Origin:
      - '*'
      Access-Control-Expose-Headers:
      - Content-Type, ETag, Link, X-RateLimit-Limit, X-RateLimit-Remaining, X-RateLimit-Reset
      Connection:
      - keep-alive
      Content-Length:
      - '146'
      Content-Type:
      - application/basic+json
      Date:
      - Tue, 07 Dec 2021 15:46:12 GMT
      ETag:
      - '"1"'
      Last-Modified:
      - Tue, 07 Dec 2021 15:46:12 GMT
      Link:
      - <https://localhost/api/deposits/9e9f010ac4104925a9da25c607cadd5e>; rel="self",
        <https://localhost/api/deposits/9e9f010ac4104925a9da25c607cadd5e/files>; rel="files",
        <https://localhost/drafts/9e9f010ac4104925a9da25c607cadd5e>; rel="html", <https://localhost/api/files/65fb0064-ff3a-4cb9-877f-38f5a2a0e33e>;
        rel="bucket", <https://localhost/api/deposits/9e9f010ac4104925a9da25c607cadd5e/actions/clone>;
        rel="clone", <https://localhost/api/deposits/9e9f010ac4104925a9da25c607cadd5e/actions/discard>;
        rel="discard", <https://localhost/api/deposits/9e9f010ac4104925a9da25c607cadd5e/actions/disconnect_webhook>;
        rel="disconnect_webhook", <https://localhost/api/deposits/9e9f010ac4104925a9da25c607cadd5e/actions/edit>;
        rel="edit", <https://localhost/api/deposits/9e9f010ac4104925a9da25c607cadd5e/actions/permissions>;
        rel="permissions", <https://localhost/api/deposits/9e9f010ac4104925a9da25c607cadd5e/actions/publish>;
        rel="publish", <https://localhost/api/deposits/9e9f010ac4104925a9da25c607cadd5e/actions/upload>;
        rel="upload"
      Retry-After:
      - '3322'
      Server:
      - nginx/1.21.4
      Strict-Transport-Security:
      - max-age=15768000
      X-RateLimit-Limit:
      - '5000'
      X-RateLimit-Remaining:
      - '4945'
      X-RateLimit-Reset:
      - '1638895295'
    status:
      code: 200
      message: OK
- request:
    body: null
    headers:
      Accept:
      - application/basic+json
      Accept-Encoding:
      - gzip, deflate
      Connection:
      - keep-alive
      User-Agent:
      - python-requests/2.26.0
      authorization:
      - DUMMY
    method: GET
    uri: https://localhost/api/deposits/?by_me=True&size=1
  response:
    body:
      string: '{"aggregations":{"facet_accelerator_parameters":{"buckets":[],"doc_count_error_upper_bound":0,"sum_other_doc_count":0},"facet_cadi_status":{"buckets":[],"doc_count_error_upper_bound":0,"sum_other_doc_count":0},"facet_cms_working_group":{"buckets":[],"doc_count_error_upper_bound":0,"meta":{"title":"CMS
        Working Group"},"sum_other_doc_count":0},"facet_collection":{"buckets":[{"__display_name__":"ALICE
        Analysis","doc_count":9,"facet_collection_version":{"buckets":[{"doc_count":9,"key":"0.0.1"}],"doc_count_error_upper_bound":0,"sum_other_doc_count":0},"key":"alice-analysis"},{"__display_name__":"CMS
        Analysis","doc_count":9,"facet_collection_version":{"buckets":[{"doc_count":9,"key":"0.0.1"}],"doc_count_error_upper_bound":0,"sum_other_doc_count":0},"key":"cms-analysis"}],"doc_count_error_upper_bound":0,"meta":{"order":1},"sum_other_doc_count":0},"facet_collision_system":{"buckets":[],"doc_count_error_upper_bound":0,"sum_other_doc_count":0},"facet_final_states":{"buckets":[],"doc_count_error_upper_bound":0,"sum_other_doc_count":0},"facet_further_search_categorisation":{"buckets":[],"doc_count_error_upper_bound":0,"meta":{"title":"Further
        Search Categorization"},"sum_other_doc_count":0},"facet_further_search_categorisation_heavy_ion":{"buckets":[],"doc_count_error_upper_bound":0,"meta":{"title":"Further
        Search Categorization Heavy Ion"},"sum_other_doc_count":0},"facet_interpretation":{"buckets":[],"doc_count_error_upper_bound":0,"sum_other_doc_count":0},"facet_next_deadline_date":{"buckets":[],"meta":{"title":"Next
        Deadline Date","type":"range"}},"facet_physics_theme":{"buckets":[],"doc_count_error_upper_bound":0,"sum_other_doc_count":0},"facet_sm_analysis_characteristics":{"buckets":[],"doc_count_error_upper_bound":0,"meta":{"title":"SM
        Analysis Characteristics"},"sum_other_doc_count":0},"particles":{"doc_count":0,"facet_physics_objects":{"buckets":[],"doc_count_error_upper_bound":0,"sum_other_doc_count":0}}},"hits":{"hits":[{"created":"2021-12-07T15:42:35.599983+00:00","metadata":{},"pid":"2c90c0c8beee478f8de8cf2160f856fe","updated":"2021-12-07T15:42:36.075650+00:00"}],"total":18},"links":{"next":"https://localhost/api/deposits/?page=2&size=1","self":"https://localhost/api/deposits/?page=1&size=1"}}'
    headers:
      Access-Control-Allow-Origin:
      - '*'
      Access-Control-Expose-Headers:
      - Content-Type, ETag, Link, X-RateLimit-Limit, X-RateLimit-Remaining, X-RateLimit-Reset
      Connection:
      - keep-alive
      Content-Length:
      - '2232'
      Content-Type:
      - application/basic+json
      Date:
      - Tue, 07 Dec 2021 15:46:13 GMT
      Link:
      - <https://localhost/deposits/?page=1&size=1>; rel="self", <https://localhost/deposits/?page=2&size=1>;
        rel="next"
      Retry-After:
      - '3322'
      Server:
      - nginx/1.21.4
      Strict-Transport-Security:
      - max-age=15768000
      X-RateLimit-Limit:
      - '5000'
      X-RateLimit-Remaining:
      - '4955'
      X-RateLimit-Reset:
      - '1638895296'
    status:
      code: 200
      message: OK
- request:
    body: null
    headers:
      Accept:
      - '*/*'
      Accept-Encoding:
      - gzip, deflate
      Connection:
      - keep-alive
      Content-Length:
      - '0'
      Content-type:
      - application/json
      User-Agent:
      - python-requests/2.26.0
      authorization:
      - DUMMY
    method: DELETE
    uri: https://localhost/api/deposits/be01b5f155b846788f6447eca558615c
  response:
    body:
      string: ''
    headers:
      Access-Control-Allow-Origin:
      - '*'
      Access-Control-Expose-Headers:
      - Content-Type, ETag, Link, X-RateLimit-Limit, X-RateLimit-Remaining, X-RateLimit-Reset
      Connection:
      - keep-alive
      Content-Length:
      - '0'
      Content-Type:
      - text/html; charset=utf-8
      Date:
      - Tue, 07 Dec 2021 15:46:13 GMT
      Retry-After:
      - '3322'
      Server:
      - nginx/1.21.4
      Strict-Transport-Security:
      - max-age=15768000
      X-RateLimit-Limit:
      - '5000'
      X-RateLimit-Remaining:
      - '4944'
      X-RateLimit-Reset:
      - '1638895296'
    status:
      code: 204
      message: NO CONTENT
- request:
    body: null
    headers:
      Accept:
      - '*/*'
      Accept-Encoding:
      - gzip, deflate
      Connection:
      - keep-alive
      Content-Length:
      - '0'
      Content-type:
      - application/json
      User-Agent:
      - python-requests/2.26.0
      authorization:
      - DUMMY
    method: DELETE
    uri: https://localhost/api/deposits/9e9f010ac4104925a9da25c607cadd5e
  response:
    body:
      string: ''
    headers:
      Access-Control-Allow-Origin:
      - '*'
      Access-Control-Expose-Headers:
      - Content-Type, ETag, Link, X-RateLimit-Limit, X-RateLimit-Remaining, X-RateLimit-Reset
      Connection:
      - keep-alive
      Content-Length:
      - '0'
      Content-Type:
      - text/html; charset=utf-8
      Date:
      - Tue, 07 Dec 2021 15:46:13 GMT
      Retry-After:
      - '3321'
      Server:
      - nginx/1.21.4
      Strict-Transport-Security:
      - max-age=15768000
      X-RateLimit-Limit:
      - '5000'
      X-RateLimit-Remaining:
      - '4943'
      X-RateLimit-Reset:
      - '1638895295'
    status:
      code: 204
      message: NO CONTENT
version: 1
